# number,type
4,2
6,2
14,2
15,1
16,2
21,2
33,8
36,2
38,2
41,16
46,2
47,2
49,8
52,2
56,2
67,8
68,3
70,2
73,8
74,2
76,2
82,11
85,2
87,8
89,8
98,2
106,2
107,2
112,6
113,2
115,2
116,16
119,2
122,16
132,16
145,2
146,2
147,16
149,2
150,8
155,2
157,2
163,2
165,2
170,16
173,2
179,2
186,2
190,2
192,2
206,12
209,2
214,16
215,16
222,2
225,2
226,8
230,3
231,16
234,2
238,2
239,2
241,2
242,2
248,5
249,8
250,2
252,2
254,5
257,2
258,16
263,2
264,2
276,16
277,16
280,16
283,16
287,2
288,3
290,16
292,2
294,8
295,8
296,2
310,5
316,2
326,8
328,2
332,5
337,2
338,2
339,16
340,3
342,2
344,2
347,2
355,2
358,16
359,16
360,16
361,2
373,8
374,16
375,3
378,3
386,2
388,5
394,16
402,2
405,16
408,16
419,2
423,2
425,16
427,2
432,3
436,16
444,16
446,16
450,2
452,8
454,16
456,16
457,16
461,2
464,2
465,3
466,2
481,16
484,8
486,4
487,2
495,2
496,5
497,5
500,2
513,2
516,3
519,16
521,2
524,2
528,16
529,16
535,16
544,16
547,2
548,12
549,5
551,2
562,2
564,16
571,2
580,16
592,3
593,3
596,2
602,16
605,16
611,2
615,3
621,8
622,11
624,2
643,8
647,16
648,12
656,16
657,16
667,2
674,2
676,5
680,2
682,2
685,2
686,16
692,16
693,3
694,2
697,2
698,16
707,16
710,2
719,2
726,2
737,5
745,18
755,16
756,8
757,16
759,2
760,6
763,5
769,5
785,2
788,8
791,2
792,8
794,2
796,3
800,3
802,16
