# number,type
4,3
6,2
14,12
15,1
16,4
21,4
33,12
36,2
38,2
41,3
46,3
47,2
49,17
52,4
56,1
67,3
68,5
70,5
73,3
74,3
76,5
82,4
85,9
87,1
89,11
98,11
106,9
107,1
112,17
113,3
115,4
116,3
119,2
122,3
132,8
145,11
146,11
147,16
149,10
150,9
155,2
157,10
163,12
165,1
170,11
173,5
179,3
186,5
190,8
192,12
206,5
209,1
214,3
215,3
222,11
225,12
226,13
230,3
231,3
234,2
238,9
239,12
241,16
242,7
248,8
249,18
250,2
252,12
254,5
257,6
258,3
263,3
264,18
276,11
277,12
280,1
283,16
287,1
288,1
290,3
292,18
294,3
295,16
296,4
310,15
316,5
326,18
328,3
332,5
337,5
338,9
339,7
340,3
342,12
344,5
347,10
355,5
358,8
359,3
360,3
361,5
373,1
374,3
375,11
378,17
386,7
388,1
394,3
402,3
405,16
408,15
419,1
423,12
425,3
427,1
432,3
436,7
444,3
446,3
450,2
452,8
454,8
456,10
457,3
461,3
464,10
465,3
466,10
481,12
484,15
486,12
487,2
495,3
496,5
497,15
500,2
513,3
516,17
519,11
521,1
524,11
528,4
529,12
535,10
544,12
547,1
548,5
549,1
551,4
562,12
564,3
571,1
580,3
592,11
593,13
596,1
602,10
605,3
611,5
615,3
621,3
622,7
624,1
643,3
647,8
648,5
656,6
657,3
667,5
674,3
676,2
680,2
682,4
685,5
686,11
692,3
693,6
694,5
697,2
698,15
707,3
710,5
719,3
726,3
737,5
745,12
755,10
756,1
757,5
759,2
760,17
763,5
769,12
785,10
788,10
791,18
792,14
794,2
796,3
800,17
802,11
